An R package for using data from the Czech public finance database (Monitor Státní pokladny) • statnipokladna
…
but it has been cleaned up, and can be enriched with any of the metadata codelists:

functional_categories <- sp_get_codelist("paragraf")
#> ℹ Codelist file already in '~/sp_data/', not downloading. Set `redownload = TRUE` if needed.
#> ℹ Processing codelist data

functional_categories
#> # A tibble: 552 x 7
#>    paragraf skupina pododdil oddil paragraf_nazev          start_date end_date  
#>    <chr>    <chr>   <chr>    <chr> <chr>                   <date>     <date>    
#>  1 0000     0       0        0     Pro příjmy (technický … 1900-01-01 9999-12-31
#>  2 1011     1       101      10    Udržování výrobního po… 1900-01-01 9999-12-31
#>  3 1012     1       101      10    Podnikání a restruktur… 1900-01-01 9999-12-31
#>  4 1013     1       101      10    Genetický potenciál ho… 1900-01-01 9999-12-31
#>  5 1014     1       101      10    Ozdravování hospodářsk… 1900-01-01 9999-12-31
#>  6 1019     1       101      10    Ostatní zemědělská a p… 1900-01-01 9999-12-31
#>  7 1021     1       102      10    Organizace trhu s prod… 1900-01-01 9999-12-31
#>  8 1022     1       102      10    Organizace trhu s výro… 1900-01-01 9999-12-31
#>  9 1023     1       102      10    Organizace trhu s prod… 1900-01-01 9999-12-31
#> 10 1024     1       102      10    Organizace trhu s výro… 1900-01-01 9999-12-31
#> # … with 542 more rows
…
add a codelist without downloading it first - just pass its ID to the function as a character instead of an object.

Codelists are also cached, but you have one in your namespace, you can pass it as an object, provided that it has the right columns.

local_budgets %>% 
  sp_add_codelist(functional_categories) %>% 
  sp_add_codelist("polozka")
#> Warning: The `keep` argument of `group_map()` is deprecated as of dplyr 1.0.0.
#> Please use the `.keep` argument instead.
#> This warning is displayed once every 8 hours.
#> Call `lifecycle::last_warnings()` to see where this warning was generated.
#> ℹ Codelist file already in '~/sp_data/', not downloading. Set `redownload = TRUE` if needed.
#> ℹ Processing codelist data
#> # A tibble: 1,189,627 x 27
#>    vykaz vtab  per_yr per_m ucjed ico   kraj  nuts  `0CI_TYPE` paragraf polozka
#>    <chr> <chr> <chr>  <chr> <chr> <chr> <chr> <chr> <chr>      <chr>    <chr>  
#>  1 051   0002… 2019   09    1000… 7508… CZ03  CZ03  3          6409     5364   
#>  2 051   0002… 2019   09    1000… 7508… CZ03  CZ03  3          6409     5909   
#>  3 051   0001… 2019   09    1000… 0006… CZ010 CZ01… 2          0000     1111   
#>  4 051   0001… 2019   09    1000… 0006… CZ010 CZ01… 2          0000     1112   
#>  5 051   0001… 2019   09    1000… 0006… CZ010 CZ01… 2          0000     1113   
#>  6 051   0001… 2019   09    1000… 0006… CZ010 CZ01… 2          0000     1121   
#>  7 051   0001… 2019   09    1000… 0006… CZ010 CZ01… 2          0000     1122   
#>  8 051   0001… 2019   09    1000… 0006… CZ010 CZ01… 2          0000     1211   
#>  9 051   0001… 2019   09    1000… 0006… CZ010 CZ01… 2          0000     1332   
#> 10 051   0001… 2019   09    1000… 0006… CZ010 CZ01… 2          0000     1333   
#> # … with 1,189,617 more rows, and 16 more variables: budget_adopted <dbl>,
#> #   budget_amended <dbl>, budget_spending <dbl>, period_vykaz <date>,
#> #   skupina <chr>, pododdil <chr>, oddil <chr>,
#> #   functional_categories_paragraf_nazev <chr>,
#> #   functional_categories_start_date <date>,
#> #   functional_categories_end_date <date>, polozka_start_date <date>,
#> #   polozka_end_date <date>, trida <chr>, seskupeni <chr>, podseskupeni <chr>,
#> #   polozka_nazev <chr>
…
