…
…but it has been cleaned up, and can be enriched with any of the
metadata codelists:

``` r
functional_categories <- get_codelist("paragraf")
#> Building URL for codelist paragraf - Paragraf
#> Downloading codelist data
#> Processing codelist data
```

``` r
functional_categories
#> # A tibble: 550 x 9
#>    paragraf skupina oddil pododdil nazev kr_nazev str_nazev start_date
#>    <chr>    <chr>   <chr> <chr>    <chr> <chr>    <chr>     <date>    
#>  1 0000     Příjmy  Příj… Příjmy   Pro … Pro pří… Pro příj… 1900-01-01
#>  2 1011     Zemědě… Země… Zeměděl… Udrž… ""       ""        1900-01-01
#>  3 1012     Zemědě… Země… Zeměděl… Podn… Podn.,r… Podnikán… 1900-01-01
#>  4 1013     Zemědě… Země… Zeměděl… Gene… Genet.p… Genetick… 1900-01-01
#>  5 1014     Zemědě… Země… Zeměděl… Ozdr… Ozdrav.… Ozdrav.h… 1900-01-01
#>  6 1019     Zemědě… Země… Zeměděl… Osta… Ost.zem… Ostatní … 1900-01-01
#>  7 1021     Zemědě… Země… Regulac… Orga… Regul.t… Regulace… 1900-01-01
#>  8 1022     Zemědě… Země… Regulac… Orga… Regul.t… Reg.trhu… 1900-01-01
#>  9 1023     Zemědě… Země… Regulac… Orga… Regul.t… Organiza… 1900-01-01
#> 10 1024     Zemědě… Země… Regulac… Orga… Regul.t… Reg.trhu… 1900-01-01
#> # … with 540 more rows, and 1 more variable: end_date <date>
```
…
