An R package for using data from the Czech public finance database (Monitor Státní pokladny) • statnipokladna
…
but it has been cleaned up, and can be enriched with any of the metadata codelists:

functional_categories <- sp_get_codelist("paragraf")
#> ℹ Storing codelist in '/var/folders/fr/6f85xds52pq7g55fpmk4z7f80000gn/T//RtmpoP6RVe'
#> ℹ Set `dest_dir` for more control over downloaded files.

functional_categories
#> # A tibble: 841 × 8
#>    paragraf start_date end_date   nazev          skupina oddil pododdil poznamka
#>    <chr>    <date>     <date>     <chr>          <chr>   <chr> <chr>    <chr>   
#>  1 0000     2010-01-01 9999-12-31 Pro příjmy (t… Příjmy  Příj… Příjmy   Pro pří…
#>  2 1011     2010-01-01 9999-12-31 Udržování výr… Zemědě… Země… Zeměděl… Zeměděl…
#>  3 1012     2010-01-01 9999-12-31 Podnikání a r… Zemědě… Země… Zeměděl… Podniká…
#>  4 1013     2010-01-01 9999-12-31 Genetický pot… Zemědě… Země… Zeměděl… Genetic…
#>  5 1014     2010-01-01 9999-12-31 Ozdravování h… Zemědě… Země… Zeměděl… Ozdrav.…
#>  6 1019     2010-01-01 9999-12-31 Ostatní zeměd… Zemědě… Země… Zeměděl… Ostatní…
#>  7 1021     2010-01-01 9999-12-31 Organizace tr… Zemědě… Země… Regulac… Regulac…
#>  8 1022     2010-01-01 9999-12-31 Organizace tr… Zemědě… Země… Regulac… Org. tr…
#>  9 1023     2010-01-01 9999-12-31 Organizace tr… Zemědě… Země… Regulac… Organiz…
#> 10 1024     2010-01-01 9999-12-31 Organizace tr… Zemědě… Země… Regulac… Reg.trh…
#> # ℹ 831 more rows
…
As you can see below, you can

add multiple codelists in one pipe

add a codelist without downloading it first - just pass its ID to the function as a character instead of an object.

Codelists are also cached, but you have one in your namespace, you can pass it as an object, provided that it has the right columns.

local_budgets %>% 
  sp_add_codelist(functional_categories) %>% 
  sp_add_codelist("polozka")
#> ℹ Storing codelist in '/var/folders/fr/6f85xds52pq7g55fpmk4z7f80000gn/T//RtmpoP6RVe'
#> ℹ Set `dest_dir` for more control over downloaded files.
#> ℹ Joining on 2 columns: polozka, poznamka.This may indicate a problem with the data.Set `by` if needed.
#> # A tibble: 1,189,627 × 34
#>    vykaz vtab   vykaz_year vykaz_month ucjed      ico    kraj  nuts  polozka_typ
#>    <chr> <chr>  <chr>      <chr>       <chr>      <chr>  <chr> <chr> <chr>      
#>  1 051   000200 2019       09          1000003163 75086… CZ03  CZ03  3          
#>  2 051   000200 2019       09          1000003163 75086… CZ03  CZ03  3          
#>  3 051   000100 2019       09          1000017768 00064… CZ010 CZ01… 2          
#>  4 051   000100 2019       09          1000017768 00064… CZ010 CZ01… 2          
#>  5 051   000100 2019       09          1000017768 00064… CZ010 CZ01… 2          
#>  6 051   000100 2019       09          1000017768 00064… CZ010 CZ01… 2          
#>  7 051   000100 2019       09          1000017768 00064… CZ010 CZ01… 2          
#>  8 051   000100 2019       09          1000017768 00064… CZ010 CZ01… 2          
#>  9 051   000100 2019       09          1000017768 00064… CZ010 CZ01… 2          
#> 10 051   000100 2019       09          1000017768 00064… CZ010 CZ01… 2          
#> # ℹ 1,189,617 more rows
#> # ℹ 25 more variables: paragraf <chr>, polozka <chr>, budget_adopted <dbl>,
#> #   budget_amended <dbl>, budget_spending <dbl>, vykaz_date <date>,
#> #   functional_categories_start_date <date>,
#> #   functional_categories_end_date <date>, functional_categories_nazev <chr>,
#> #   skupina <chr>, oddil <chr>, pododdil <chr>, poznamka <chr>,
#> #   polozka_id <chr>, polozka_start_date <date>, polozka_end_date <date>, …
…
